module git.foxminded.com.ua/foxstudent102518/weather-bot

go 1.18

require (
	github.com/joho/godotenv v1.4.0 // indirect
	github.com/mattn/go-colorable v0.1.12 // indirect
	github.com/mattn/go-isatty v0.0.14 // indirect
	github.com/rs/zerolog v1.28.0 // indirect
	golang.org/x/sys v0.0.0-20220114195835-da31bd327af9 // indirect
	gopkg.in/telebot.v3 v3.0.0 // indirect
)
